[
	{
		"constant": false,
		"inputs": [],
		"name": "openTicket",
		"outputs": [],
		"payable": false,
		"stateMutability": "nonpayable",
		"type": "function"
	},
	{
		"constant": true,
		"inputs": [],
		"name": "viewSecondBatchOfContractState",
		"outputs": [
			{
				"name": "",
				"type": "bool"
			},
			{
				"name": "",
				"type": "uint256"
			},
			{
				"name": "",
				"type": "uint256"
			},
			{
				"name": "",
				"type": "bool"
			},
			{
				"name": "",
				"type": "address"
			},
			{
				"name": "",
				"type": "uint256"
			},
			{
				"name": "",
				"type": "uint256"
			},
			{
				"name": "",
				"type": "uint256"
			},
			{
				"name": "",
				"type": "uint256"
			},
			{
				"name": "",
				"type": "uint256"
			}
		],
		"payable": false,
		"stateMutability": "view",
		"type": "function"
	},
	{
		"constant": true,
		"inputs": [],
		"name": "depositInfo",
		"outputs": [
			{
				"name": "amount",
				"type": "uint256"
			},
			{
				"name": "timestamp",
				"type": "uint256"
			},
			{
				"name": "blockNumber",
				"type": "uint256"
			}
		],
		"payable": false,
		"stateMutability": "view",
		"type": "function"
	},
	{
		"constant": true,
		"inputs": [],
		"name": "withdrawalInfo",
		"outputs": [
			{
				"name": "amount",
				"type": "uint256"
			},
			{
				"name": "timestamp",
				"type": "uint256"
			},
			{
				"name": "blockNumber",
				"type": "uint256"
			}
		],
		"payable": false,
		"stateMutability": "view",
		"type": "function"
	},
	{
		"constant": false,
		"inputs": [],
		"name": "closeTicket",
		"outputs": [],
		"payable": false,
		"stateMutability": "nonpayable",
		"type": "function"
	},
	{
		"constant": false,
		"inputs": [],
		"name": "approveAgreement",
		"outputs": [],
		"payable": false,
		"stateMutability": "nonpayable",
		"type": "function"
	},
	{
		"constant": false,
		"inputs": [],
		"name": "withdraw",
		"outputs": [],
		"payable": false,
		"stateMutability": "nonpayable",
		"type": "function"
	},
	{
		"constant": true,
		"inputs": [],
		"name": "Notifier",
		"outputs": [
			{
				"name": "",
				"type": "address"
			}
		],
		"payable": false,
		"stateMutability": "view",
		"type": "function"
	},
	{
		"constant": true,
		"inputs": [],
		"name": "viewSecondBatchOfClauses",
		"outputs": [
			{
				"name": "",
				"type": "uint256"
			},
			{
				"name": "",
				"type": "uint256"
			},
			{
				"name": "",
				"type": "uint256"
			},
			{
				"name": "",
				"type": "uint256"
			},
			{
				"name": "",
				"type": "uint256"
			},
			{
				"name": "",
				"type": "uint256"
			},
			{
				"name": "",
				"type": "uint256"
			},
			{
				"name": "",
				"type": "uint256"
			}
		],
		"payable": false,
		"stateMutability": "view",
		"type": "function"
	},
	{
		"constant": true,
		"inputs": [],
		"name": "viewThirdBatchOfClauses",
		"outputs": [
			{
				"name": "",
				"type": "uint256"
			},
			{
				"name": "",
				"type": "uint256"
			},
			{
				"name": "",
				"type": "uint256"
			},
			{
				"name": "",
				"type": "uint256[]"
			}
		],
		"payable": false,
		"stateMutability": "view",
		"type": "function"
	},
	{
		"constant": true,
		"inputs": [],
		"name": "lockedAmount",
		"outputs": [
			{
				"name": "",
				"type": "uint256"
			}
		],
		"payable": false,
		"stateMutability": "view",
		"type": "function"
	},
	{
		"constant": true,
		"inputs": [],
		"name": "rentModificationInfo",
		"outputs": [
			{
				"name": "amount",
				"type": "uint256"
			},
			{
				"name": "timestamp",
				"type": "uint256"
			},
			{
				"name": "blockNumber",
				"type": "uint256"
			}
		],
		"payable": false,
		"stateMutability": "view",
		"type": "function"
	},
	{
		"constant": true,
		"inputs": [],
		"name": "availableAmount",
		"outputs": [
			{
				"name": "",
				"type": "uint256"
			}
		],
		"payable": false,
		"stateMutability": "view",
		"type": "function"
	},
	{
		"constant": true,
		"inputs": [],
		"name": "viewFirstBatchOfContractState",
		"outputs": [
			{
				"name": "",
				"type": "uint256"
			},
			{
				"name": "",
				"type": "uint256"
			},
			{
				"name": "",
				"type": "uint256"
			},
			{
				"name": "",
				"type": "uint256"
			},
			{
				"name": "",
				"type": "uint256"
			},
			{
				"name": "",
				"type": "uint256"
			},
			{
				"name": "",
				"type": "uint256"
			},
			{
				"name": "",
				"type": "uint256"
			},
			{
				"name": "",
				"type": "uint256"
			}
		],
		"payable": false,
		"stateMutability": "view",
		"type": "function"
	},
	{
		"constant": true,
		"inputs": [],
		"name": "agreementApproved",
		"outputs": [
			{
				"name": "",
				"type": "bool"
			}
		],
		"payable": false,
		"stateMutability": "view",
		"type": "function"
	},
	{
		"constant": false,
		"inputs": [
			{
				"name": "newRent",
				"type": "uint256"
			}
		],
		"name": "modifyRent",
		"outputs": [],
		"payable": false,
		"stateMutability": "nonpayable",
		"type": "function"
	},
	{
		"constant": true,
		"inputs": [],
		"name": "tenant",
		"outputs": [
			{
				"name": "",
				"type": "address"
			}
		],
		"payable": false,
		"stateMutability": "view",
		"type": "function"
	},
	{
		"constant": false,
		"inputs": [],
		"name": "startDispute",
		"outputs": [],
		"payable": false,
		"stateMutability": "nonpayable",
		"type": "function"
	},
	{
		"constant": true,
		"inputs": [],
		"name": "viewFirstBatchOfClauses",
		"outputs": [
			{
				"name": "",
				"type": "uint256"
			},
			{
				"name": "",
				"type": "uint256"
			},
			{
				"name": "",
				"type": "uint256"
			},
			{
				"name": "",
				"type": "uint256"
			},
			{
				"name": "",
				"type": "uint256"
			},
			{
				"name": "",
				"type": "uint256"
			},
			{
				"name": "",
				"type": "address"
			},
			{
				"name": "",
				"type": "address"
			}
		],
		"payable": false,
		"stateMutability": "view",
		"type": "function"
	},
	{
		"constant": false,
		"inputs": [],
		"name": "deposit",
		"outputs": [],
		"payable": true,
		"stateMutability": "payable",
		"type": "function"
	},
	{
		"constant": false,
		"inputs": [],
		"name": "endDispute",
		"outputs": [],
		"payable": false,
		"stateMutability": "nonpayable",
		"type": "function"
	},
	{
		"constant": true,
		"inputs": [],
		"name": "disputeInfo",
		"outputs": [
			{
				"name": "onGoing",
				"type": "bool"
			},
			{
				"name": "startedBy",
				"type": "address"
			},
			{
				"name": "timestamp",
				"type": "uint256"
			},
			{
				"name": "blockNumber",
				"type": "uint256"
			}
		],
		"payable": false,
		"stateMutability": "view",
		"type": "function"
	},
	{
		"constant": true,
		"inputs": [],
		"name": "landlord",
		"outputs": [
			{
				"name": "",
				"type": "address"
			}
		],
		"payable": false,
		"stateMutability": "view",
		"type": "function"
	},
	{
		"constant": true,
		"inputs": [],
		"name": "viewMostRelevantClauses",
		"outputs": [
			{
				"name": "",
				"type": "uint256"
			},
			{
				"name": "",
				"type": "uint256"
			},
			{
				"name": "",
				"type": "uint256"
			},
			{
				"name": "",
				"type": "uint256"
			},
			{
				"name": "",
				"type": "uint256"
			},
			{
				"name": "",
				"type": "uint256"
			}
		],
		"payable": false,
		"stateMutability": "view",
		"type": "function"
	},
	{
		"constant": true,
		"inputs": [],
		"name": "clauses",
		"outputs": [
			{
				"components": [
					{
						"components": [
							{
								"name": "Ptype",
								"type": "uint256"
							}
						],
						"name": "property",
						"type": "tuple"
					},
					{
						"components": [
							{
								"name": "leaseDateSelected",
								"type": "uint256"
							},
							{
								"name": "renewalSelected",
								"type": "uint256"
							},
							{
								"name": "dateLeaseStarts",
								"type": "uint256"
							},
							{
								"name": "dateLeaseEnds",
								"type": "uint256"
							}
						],
						"name": "leaseDetails",
						"type": "tuple"
					}
				],
				"name": "general",
				"type": "tuple"
			},
			{
				"components": [
					{
						"components": [
							{
								"name": "selectedAccessToParking",
								"type": "uint256"
							}
						],
						"name": "details",
						"type": "tuple"
					}
				],
				"name": "property",
				"type": "tuple"
			},
			{
				"components": [
					{
						"components": [
							{
								"name": "wallet",
								"type": "address"
							}
						],
						"name": "tenant",
						"type": "tuple"
					},
					{
						"components": [
							{
								"name": "wallet",
								"type": "address"
							}
						],
						"name": "landlord",
						"type": "tuple"
					},
					{
						"name": "selectedOccupantsOptions",
						"type": "uint256"
					}
				],
				"name": "parties",
				"type": "tuple"
			},
			{
				"components": [
					{
						"components": [
							{
								"name": "amount",
								"type": "uint256"
							},
							{
								"name": "paymentDateDay",
								"type": "uint256"
							}
						],
						"name": "rent",
						"type": "tuple"
					},
					{
						"components": [
							{
								"name": "selectedIncrementNotice",
								"type": "uint256"
							},
							{
								"name": "daysNoticeBeforeIncreasingRent",
								"type": "uint256"
							}
						],
						"name": "rentIncrease",
						"type": "tuple"
					},
					{
						"components": [
							{
								"name": "selectedPetsAllowance",
								"type": "uint256"
							},
							{
								"name": "selectedSmokingAllowance",
								"type": "uint256"
							}
						],
						"name": "useOfProperty",
						"type": "tuple"
					},
					{
						"components": [
							{
								"name": "selectedLatePayment",
								"type": "uint256"
							},
							{
								"name": "amount",
								"type": "uint256"
							},
							{
								"name": "percentage",
								"type": "uint256"
							}
						],
						"name": "latePayments",
						"type": "tuple"
					},
					{
						"components": [
							{
								"name": "selectedUtilitiesDetails",
								"type": "uint256"
							},
							{
								"name": "utilities",
								"type": "uint256[]"
							}
						],
						"name": "utilitiesDetails",
						"type": "tuple"
					}
				],
				"name": "terms",
				"type": "tuple"
			},
			{
				"components": [
					{
						"components": [
							{
								"name": "selectedDisputeResolution",
								"type": "uint256"
							},
							{
								"name": "selectedDisputeResolutionCost",
								"type": "uint256"
							}
						],
						"name": "disputeResolution",
						"type": "tuple"
					},
					{
						"components": [
							{
								"name": "selectedAdditionalClause",
								"type": "uint256"
							}
						],
						"name": "additionalClauses",
						"type": "tuple"
					}
				],
				"name": "finalDetails",
				"type": "tuple"
			}
		],
		"payable": false,
		"stateMutability": "view",
		"type": "function"
	},
	{
		"constant": true,
		"inputs": [],
		"name": "ticketInfo",
		"outputs": [
			{
				"name": "open",
				"type": "bool"
			},
			{
				"name": "timestamp",
				"type": "uint256"
			},
			{
				"name": "blockNumber",
				"type": "uint256"
			}
		],
		"payable": false,
		"stateMutability": "view",
		"type": "function"
	},
	{
		"inputs": [],
		"payable": false,
		"stateMutability": "nonpayable",
		"type": "constructor"
	},
	{
		"payable": true,
		"stateMutability": "payable",
		"type": "fallback"
	},
	{
		"anonymous": false,
		"inputs": [
			{
				"indexed": false,
				"name": "user",
				"type": "address"
			},
			{
				"indexed": false,
				"name": "timestamp",
				"type": "uint256"
			}
		],
		"name": "Approved",
		"type": "event"
	},
	{
		"anonymous": false,
		"inputs": [
			{
				"indexed": false,
				"name": "user",
				"type": "address"
			},
			{
				"indexed": false,
				"name": "amount",
				"type": "uint256"
			},
			{
				"indexed": false,
				"name": "timestamp",
				"type": "uint256"
			}
		],
		"name": "Deposit",
		"type": "event"
	},
	{
		"anonymous": false,
		"inputs": [
			{
				"indexed": false,
				"name": "user",
				"type": "address"
			},
			{
				"indexed": false,
				"name": "amount",
				"type": "uint256"
			},
			{
				"indexed": false,
				"name": "timestamp",
				"type": "uint256"
			}
		],
		"name": "Withdraw",
		"type": "event"
	},
	{
		"anonymous": false,
		"inputs": [
			{
				"indexed": false,
				"name": "user",
				"type": "address"
			},
			{
				"indexed": false,
				"name": "amount",
				"type": "uint256"
			},
			{
				"indexed": false,
				"name": "timestamp",
				"type": "uint256"
			}
		],
		"name": "RentModified",
		"type": "event"
	},
	{
		"anonymous": false,
		"inputs": [
			{
				"indexed": false,
				"name": "user",
				"type": "address"
			},
			{
				"indexed": false,
				"name": "open",
				"type": "bool"
			},
			{
				"indexed": false,
				"name": "timestamp",
				"type": "uint256"
			}
		],
		"name": "Ticket",
		"type": "event"
	},
	{
		"anonymous": false,
		"inputs": [
			{
				"indexed": false,
				"name": "user",
				"type": "address"
			},
			{
				"indexed": false,
				"name": "onGoing",
				"type": "bool"
			},
			{
				"indexed": false,
				"name": "timestamp",
				"type": "uint256"
			}
		],
		"name": "Dispute",
		"type": "event"
	}
]